…
    ## The following objects are masked from 'package:stats':
    ## 
    ##     filter, lag

    ## The following objects are masked from 'package:base':
    ## 
    ##     intersect, setdiff, setequal, union

``` r
data("tidychartsdata") # This will load marks_data and gender_school_earnings to your environment
marks_data
```

    ## # A tibble: 30 x 3
    ##    name  subject   marks
    ##    <chr> <chr>     <dbl>
    ##  1 Arya  Geography  76  
    ##  2 Arya  History    81  
    ##  3 Arya  Math       72  
    ##  4 Arya  Music      75  
    ##  5 Arya  Science    83.5
    ##  6 Bran  Geography  62.5
    ##  7 Bran  History   100  
    ##  8 Bran  Math       57.5
    ##  9 Bran  Music      49.5
    ## 10 Bran  Science    53.5
    ## # … with 20 more rows

``` r
gender_school_earnings
```

    ## # A tibble: 21 x 4
    ##    School     Women   Men   Gap
    ##    <chr>      <dbl> <dbl> <dbl>
    ##  1 MIT           94   152    58
    ##  2 Stanford      96   151    55
    ##  3 Harvard      112   165    53
    ##  4 U.Penn        92   141    49
    ##  5 Princeton     90   137    47
    ##  6 Chicago       78   118    40
    ##  7 Georgetown    94   131    37
    ##  8 Tufts         76   112    36
    ##  9 Yale          79   114    35
    ## 10 Columbia      86   119    33
    ## # … with 11 more rows
…
